<svg width="24" height="24" xmlns="http://www.w3.org/2000/svg">
 <title/>

 <g>
  <title>background</title>
  <rect fill="none" id="canvas_background" height="402" width="582" y="-1" x="-1"/>
 </g>
 <g>
  <title>Layer 1</title>
  <path fill="#ffffff" id="svg_1" d="m11.701,18.771l1.437,0s0.433,-0.047 0.654,-0.284c0.21,-0.221 0.21,-0.63 0.21,-0.63s-0.031,-1.927 0.869,-2.21c0.887,-0.281 2.012,1.86 3.211,2.683c0.916,0.629 1.605,0.494 1.605,0.494l3.211,-0.044s1.682,-0.105 0.887,-1.426c-0.061,-0.105 -0.451,-0.975 -2.371,-2.76c-2.012,-1.861 -1.742,-1.561 0.676,-4.787c1.469,-1.965 2.07,-3.166 1.875,-3.676c-0.166,-0.48 -1.26,-0.361 -1.26,-0.361l-3.602,0.031s-0.27,-0.031 -0.465,0.09c-0.195,0.119 -0.314,0.391 -0.314,0.391s-0.572,1.529 -1.336,2.82c-1.623,2.729 -2.268,2.879 -2.523,2.699c-0.604,-0.391 -0.449,-1.58 -0.449,-2.432c0,-2.641 0.404,-3.75 -0.781,-4.035c-0.39,-0.091 -0.681,-0.15 -1.685,-0.166c-1.29,-0.014 -2.378,0.01 -2.995,0.311c-0.405,0.203 -0.72,0.652 -0.539,0.675c0.24,0.03 0.779,0.146 1.064,0.537c0.375,0.506 0.359,1.636 0.359,1.636s0.211,3.116 -0.494,3.503c-0.495,0.262 -1.155,-0.28 -2.595,-2.756c-0.735,-1.26 -1.291,-2.67 -1.291,-2.67s-0.105,-0.256 -0.299,-0.406c-0.227,-0.165 -0.557,-0.225 -0.557,-0.225l-3.435,0.03s-0.51,0.016 -0.689,0.24c-0.166,0.195 -0.016,0.615 -0.016,0.615s2.686,6.287 5.732,9.453c2.79,2.902 5.956,2.715 5.956,2.715l-0.05,-0.055z"/>
 </g>
</svg>