<?xml version="1.0" encoding="UTF-8"?>
<svg width="127px" height="130px" viewBox="0 0 127 130" version="1.1" xmlns="http://www.w3.org/2000/svg" xmlns:xlink="http://www.w3.org/1999/xlink">
    <!-- Generator: Sketch 52.6 (67491) - http://www.bohemiancoding.com/sketch -->
    <title>1</title>
    <desc>Created with Sketch.</desc>
    <defs>
        <polygon id="path-1" points="0 0.3044 126.215365 0.3044 126.215365 130.304226 0 130.304226"></polygon>
    </defs>
    <g id="Page-1" stroke="none" stroke-width="1" fill="none" fill-rule="evenodd">
        <g id="Artboard" transform="translate(-48.000000, -124.000000)">
            <g id="1" transform="translate(48.000000, 123.000000)">
                <g>
                    <g id="Group-89" transform="translate(0.000000, 0.696000)">
                        <mask id="mask-2" fill="white">
                            <use xlink:href="#path-1"></use>
                        </mask>
                        <g id="Clip-88"></g>
                        <path d="M120.1729,107.9194 L120.1669,107.9404 C118.4409,113.7944 115.1239,118.2134 110.0269,121.4494 C106.0639,123.9614 101.8869,125.2064 97.3639,125.2064 C95.7779,125.2064 94.1509,125.0534 92.4739,124.7484 C87.7739,123.8854 83.6209,121.5234 79.7769,117.5264 C79.0049,116.7284 78.2589,115.8864 77.5379,115.0714 L76.3729,113.7654 C73.0319,109.7794 69.2419,106.2264 65.0879,103.1784 C62.3089,101.1364 59.1139,99.7334 55.5939,99.0084 C50.7609,98.0154 45.8199,97.0924 41.0419,96.2014 L39.1409,95.8454 C34.7549,95.0274 30.8589,93.6774 27.2309,91.7164 C18.2729,86.8794 11.9849,79.3664 8.0069,68.7504 C5.0379,60.8174 4.3459,52.3874 5.9509,43.6944 C7.0479,37.7534 9.2649,32.1474 12.5379,27.0294 C15.9029,21.7664 20.1999,17.3064 25.3089,13.7744 C31.3219,9.6174 38.0259,6.9734 45.2309,5.9154 C51.8209,4.9474 58.4359,5.3724 64.8949,7.1784 C69.8339,8.5564 74.4839,10.7384 78.7149,13.6624 C82.6699,16.3974 87.4329,21.0044 92.4919,26.9864 C106.9919,44.1324 125.5469,88.1304 120.1729,107.9194 M118.8149,65.0994 C112.8879,48.9044 104.2959,33.0374 96.3909,23.6904 C90.9749,17.2844 86.0049,12.4974 81.6199,9.4634 C76.9209,6.2164 71.7559,3.7924 66.2699,2.2594 C61.6109,0.9574 56.8769,0.3044 52.1219,0.3044 C49.5809,0.3044 47.0349,0.4914 44.4909,0.8644 C36.5049,2.0354 29.0739,4.9654 22.4049,9.5734 C16.7379,13.4904 11.9709,18.4384 8.2359,24.2774 C4.6069,29.9534 2.1479,36.1734 0.9299,42.7674 C-0.8471,52.3864 -0.0751,61.7314 3.2249,70.5394 C7.5909,82.1994 14.8519,90.8354 24.8049,96.2094 C28.8569,98.3974 33.3649,99.9644 38.2039,100.8684 L40.0889,101.2164 C44.8509,102.1064 49.7569,103.0234 54.5679,104.0104 C57.3599,104.5854 59.8819,105.6904 62.0659,107.2954 C65.9019,110.1084 69.4019,113.3934 72.4699,117.0584 L73.6379,118.3694 C74.5039,119.3494 75.2859,120.2264 76.0989,121.0694 C80.7169,125.8664 85.7719,128.7114 91.5519,129.7694 C99.2029,131.1704 106.3709,129.8134 112.7629,125.7634 C118.8629,121.8884 123.0089,116.3534 125.0839,109.3104 C127.8049,99.2944 125.5809,83.5864 118.8149,65.0994" id="Fill-87" fill="white" mask="url(#mask-2)"></path>
                    </g>
                    <path d="M61.2925,52.2585 C61.1445,54.9655 59.9495,57.4505 57.9285,59.2585 C56.0255,60.9595 53.6425,61.7955 51.2615,61.7955 C48.4755,61.7955 45.6935,60.6505 43.6865,58.4065 C39.9805,54.2695 40.3465,47.8735 44.5005,44.1485 C46.3085,42.5295 48.6795,41.6375 51.1785,41.6375 C54.0745,41.6375 56.8165,42.8365 58.7015,44.9285 C60.5185,46.9475 61.4385,49.5505 61.2925,52.2585 M41.0925,40.3465 L41.0935,40.3455 C34.8445,45.9515 34.3005,55.5815 39.8805,61.8135 C42.7725,65.0445 46.9225,66.8975 51.2665,66.8975 C54.9915,66.8975 58.5665,65.5365 61.3325,63.0655 C64.3735,60.3445 66.1705,56.6055 66.3915,52.5365 C66.6125,48.4645 65.2295,44.5495 62.4965,41.5125 C56.9985,35.4065 47.1985,34.8705 41.0925,40.3465" id="Fill-90" fill="white"></path>
                </g>
            </g>
        </g>
    </g>
</svg>
